Effects of BMI, Income, Race and Blood Lead Levels on Blood Mercury Levels
…
# deinitely don't need those sticking around
rownames(blood_metal_data) <- NULL

# write out tidied dataset as a .csv
write.csv(blood_metal_data, file = "nhanes_blood_race_income.csv", quote = FALSE)

# no need to leave these around cluttering up our environment
rm(blood_levels, blood_pb_hg_data, bmi_data, body_measures, cleaned_factors, demographics, fewer_factors, race_income_data, raw_data)

3 Task 3: Tidied Tibble

tbl_df(blood_metal_data)

# A tibble: 1,000 x 8
   patient_id mercury_detecti~ blood_mercury blood_lead   bmi sex   race 
   <fct>      <fct>                    <dbl>      <dbl> <dbl> <fct> <fct>
 1 84380      0                         0.2       0.56   41.6 Fema~ White
 2 88959      1                         0.41      0.68   23.6 Fema~ Black
 3 88953      1                         0.64      1.21   22   Fema~ Black
 4 88761      1                         0.51      0.76   27.9 Fema~ Black
 5 87666      1                         0.41      0.580  21   Fema~ Black
 6 85290      1                        12.0       2.15   23.6 Male  Black
 7 88162      1                         1.08      0.42   19.7 Male  Mexi~
 8 86399      1                         1.85      1.83   23.8 Fema~ Other
 9 90336      1                         0.49      0.51   17.8 Male  White
10 93068      1                         2.05      5.42   28.5 Fema~ Othe~
# ... with 990 more rows, and 1 more variable: income <fct>
…
